assets/screenshoot/beautyandbeast.vcd
$timescale 1 ns $end
$scope module top $end
$var wire 1 ! Channel_0 $end
$var wire 1 " Channel_1 $end
$var wire 1 # Channel_2 $end
$var wire 1 $ Channel_3 $end
$var wire 1 % Channel_4 $end
$upscope $end
$enddefinitions $end
#0
0!
1"
0#
1$
0%
#100
1#
#220
0#
#340
1#
#460
0#
#560
1#
#680
0#
#800
1#
#920
0#
#1040
1#
#1160
0#
#1280
1#
#1400
0#
#1520
1#
#1640
0#
#1760
1#
#1880
0#
#2000
1#
#2120
0#
#2240
1#
#2360
0#
#2480
1#
#2600
0#
#2720
1#
#2840
0#
#2960
1#
#3080
0#
#3200
1#
#3320
0#
#3440
1#
#3560
0#
#3660
1#
#3780
0#
#3900
1#
#4020
0#
#4140
1#
#4260
0#
#4380
1#
#4500
0#
#4620
1#
#4740
0#
#4860
1#
#4980
0#
#5100
1#
#5220
0#
#5340
1#
#5460
0#
#5580
1#
#5700
0#
#5820
0"
1#
#5940
0#
#6060
1"
1#
#6180
0#
#6300
1#
#6420
0#
#6520
1#
#6540
0"
#6660
0#
#6760
1#
#6880
0#
#7000
1#
#7020
1"
#7120
0#
#7240
1#
#7260
0"
#7360
0#
#7480
1"
1#
#7600
0#
#7720
1#
#7840
0#
#7960
1#
#8080
0#
#8200
1#
#8320
0#
#8440
0"
1#
#8560
0#
#8680
1#
#8800
0#
#8920
1"
1#
0$
#9040
0#
#9160
1#
1$
#9280
0#
#9400
1#
#9520
0#
#9620
1#
#9640
0"
#9740
0#
#9860
1#
#9880
1"
0$
#9980
0#
#10100
1#
1$
#10120
0"
#10220
0#
#10340
1#
#10360
0$
#10460
0#
#10580
1"
1#
1$
#10700
0#
#10820
1#
#10840
0"
#10940
0#
#11060
1"
1#
#11080
0$
#11180
0#
#11300
1#
#11420
0#
#11540
1#
#11660
0#
#11780
0"
1#
1$
#11900
0#
#12020
1"
1#
#12140
0#
#12260
1#
#12380
0#
#12500
1#
#12620
0#
#12720
1#
#12840
0#
#12960
1#
#13080
0#
#13200
1#
#13320
0#
#13440
1#
#13560
0#
#13680
1#
#13800
0#
#13920
1#
#14040
0#
#14160
1#
#14280
0#
#14400
1#
#14520
0#
#14640
1#
#14760
0#
#14880
1#
0$
#15000
0#
#15120
1#
#15240
0#
#15360
0"
1#
#15480
0#
#15600
1"
1#
#15720
0#
#15820
1#
#15940
0#
#16060
1#
#16180
0#
#16300
1#
1$
#16420
0#
#16540
1#
#16560
0$
#16660
0#
#16780
1#
#16900
0#
#17020
1#
#17040
0"
#17140
0#
#17260
1#
#17380
0#
#17500
1"
1#
#17620
0#
#17740
1#
#17860
0#
#17980
1#
#18100
0#
#18220
0"
1#
1$
#18340
0#
#18460
1#
#18580
0#
#18680
1#
#18700
1"
0$
#18800
0#
#18920
1#
#18940
0"
1$
#19040
0#
#19160
1#
#19280
0#
#19400
1#
#19420
0$
#19520
0#
#19640
1#
#19760
0#
#19880
1"
1#
#20000
0#
#20120
1#
#20240
0#
#20360
0"
1#
#20480
0#
#20600
1#
#20720
0#
#20840
1"
1#
1$
#20960
0#
#21080
0"
1#
#21200
0#
#21320
1#
#21440
0#
#21560
1#
#21680
0#
#21780
1#
#21900
0#
#22020
1#
#22140
0#
#22260
1#
#22280
1"
0$
#22380
0#
#22500
1#
#22620
0#
#22740
1#
#22860
0#
#22980
1#
#23100
0#
#23220
1#
#23340
0#
#23460
1#
#23580
0#
#23700
0"
1#
1$
#23820
0#
#23940
1"
1#
#24060
0#
#24180
0"
1#
#24300
0#
#24420
1#
#24540
0#
#24660
1#
#24780
0#
#24880
1#
#25000
0#
#25120
1#
#25240
0#
#25360
1#
#25480
0#
#25600
1#
#25720
0#
#25840
1#
#25960
0#
#26080
1#
#26200
0#
#26320
1#
#26440
0#
#26560
1#
#26680
0#
#26800
1#
#26920
0#
#27040
1"
1#
#27160
0#
#27280
1#
#27400
0#
#27520
1#
#27640
0#
#27740
1#
#27860
0#
#27980
1#
#28100
0#
#28220
1#
#28340
0#
#28460
1#
#28580
0#
#28700
1#
#28820
0#
#28940
1#
#29060
0#
#29180
1#
#29300
0#
#29420
1#
#29540
0#
#29660
1#
#29780
0#
#29900
1#
#30020
0#
#30140
1#
#30260
0#
#30380
1#
#30500
0#
#30620
1#
#30740
0#
#30840
1#
#30960
0#
#31080
1#
#31200
0#
#31320
1#
#31340
0"
#31440
0#
#31560
1"
1#
#31580
0$
#31680
0#
#31800
1#
1$
#31920
0#
#32040
1#
#32160
0#
#32280
1#
#32400
0#
#32520
1#
#32640
0#
#32760
1#
#32880
0#
#33000
1#
#33120
0#
#33240
1#
#33360
0#
#33480
1#
#33600
0#
#33720
1#
#33840
0#
#33940
1#
#34060
0#
#34180
1#
#34300
0#
#34420
1#
#34540
0#
#34660
1#
#34780
0#
#34900
1#
#35020
0#
#35140
1#
#35260
0#
#35380
1#
#35500
0#
#35620
1#
#35740
0#
#35860
1#
#35980
0#
#36100
1#
#36220
0#
#36340
1#
#36460
0#
#36580
1#
#36700
0#
#36800
1#
#36940
0#
#37040
1#
#37160
0#
#37280
1#
#37400
0#
#104820
1!
#106300
1#
#106420
0#
#108340
1#
#108360
0!
#108460
0#
#108580
1#
#108700
0#
#108820
1#
#108940
0#
#109060
1#
#109180
0#
#109300
1#
#109420
0#
#109520
1#
#109640
0#
#109760
1#
#109880
0#
#110000
1#
#110120
0#
#110240
1#
#110360
0#
#110480
1#
#110600
0#
#110720
1#
#110840
0#
#110960
1#
#111080
0#
#111200
1#
#111320
0#
#111440
1#
#111560
0#
#111680
1#
#111800
0#
#111920
1#
#112040
0#
#112160
1#
#112280
0#
#112400
1#
#112520
0#
#112620
1#
#112740
0#
#112860
1#
#112980
0#
#113100
1#
#113220
0#
#113340
1#
#113460
0#
#113580
1#
#113700
0#
#113820
1#
#113940
0#
#114060
1#
#114180
0#
#114300
1#
#114420
0#
#114540
0"
1#
#114660
0#
#114780
1"
1#
#114900
0#
#115020
1#
#115140
0#
#115260
0"
1#
#115380
0#
#115500
1"
1#
#115620
0#
#115720
1#
#115840
0#
#115960
1#
#116080
0#
#116200
1#
#116320
0#
#116440
1#
#116560
0#
#116680
1#
#116800
0#
#116920
1#
#117040
0#
#117160
1#
#117180
0"
#117280
0#
#117400
1#
#117520
0#
#117640
1"
1#
0$
#117760
0#
#117880
1#
1$
#118000
0#
#118120
0"
1#
#118240
0#
#118360
1#
#118480
0#
#118600
1#
#118720
0#
#118820
1#
#118840
1"
0$
#118940
0#
#119060
1#
#119180
0#
#119300
1#
#119320
0"
#119420
0#
#119540
1#
#119660
0#
#119780
1#
1$
#119900
0#
#120020
1"
1#
#120040
0$
#120140
0#
#120260
1#
1$
#120280
0"
#120380
0#
#120500
1#
0$
#120620
0#
#120740
1"
1#
1$
#120860
0#
#120980
1#
#121100
0#
#121220
1#
#121340
0#
#121460
1#
#121580
0#
#121680
1#
#121800
0#
#121920
1#
#122040
0#
#122160
1#
#122280
0#
#122400
1#
#122520
0#
#122640
1#
#122760
0#
#122880
1#
#123000
0#
#123120
1#
#123140
0"
#123240
0#
#123360
1"
1#
#123480
0#
#123600
1#
#123720
0#
#123840
1#
0$
#123960
0#
#124080
1#
#124200
0#
#124320
0"
1#
#124440
0#
#124560
1"
1#
#124680
0#
#124780
1#
#124900
0#
#125020
1#
#125040
1$
#125140
0#
#125260
1#
#125280
0$
#125380
0#
#125500
1#
#125520
0"
#125620
0#
#125740
1#
#125860
0#
#125980
1#
#126100
0#
#126220
1"
1#
#126340
0#
#126460
1#
#126580
0#
#126700
1#
#126820
0#
#126940
1#
#127060
0#
#127180
1#
#127300
0#
#127420
1#
#127540
0#
#127660
0"
1#
1$
#127780
0#
#127880
1#
#127900
0$
#128000
0#
#128120
1#
#128240
0#
#128360
1#
#128380
1"
#128480
0#
#128600
1#
#128720
0#
#128840
1#
#128860
0"
#128960
0#
#129080
1#
#129200
0#
#129320
1"
1#
1$
#129440
0#
#129560
0"
1#
#129680
0#
#129800
1#
#129920
0#
#130040
1#
#130160
0#
#130280
1#
#130400
0#
#130520
1#
#130640
0#
#130740
1#
#130760
1"
0$
#130860
0#
#130980
1#
#131100
0#
#131220
1#
#131340
0#
#131460
1#
#131580
0#
#131700
1#
#131820
0#
#131940
1#
#132060
0#
#132180
1#
1$
#132200
0"
#132300
0#
#132420
1"
1#
#132540
0#
#132660
0"
1#
#132780
0#
#132900
1#
#133020
0#
#133140
1#
#133260
0#
#133380
1#
#133500
0#
#133620
1#
#133740
0#
#133840
1#
#133960
0#
#134080
1#
#134200
0#
#134320
1#
#134440
0#
#134560
1#
#134680
0#
#134800
1#
#134920
0#
#135040
1#
#135160
0#
#135280
1#
#135400
0#
#135520
1#
#135640
0#
#135760
1#
#135880
0#
#136000
1#
#136120
0#
#136240
1"
1#
#136360
0#
#136480
1#
#136600
0#
#136720
1#
#136840
0#
#136940
1#
#137060
0#
#137180
1#
#137300
0#
#137420
1#
#137540
0#
#137660
1#
#137780
0#
#137900
1#
#138020
0#
#138140
1#
#138260
0#
#138380
1#
#138500
0#
#138620
1#
#138740
0#
#138860
1#
#138980
0#
#139100
1#
#139220
0#
#139340
1#
#139460
0#
#139580
1#
#139700
0#
#139820
1#
#139940
0#
#140040
1#
#140060
0"
#140160
0#
#140280
1#
#140300
1"
0$
#140400
0#
#140520
1#
#140540
1$
#140640
0#
#140760
1#
#140880
0#
#141000
1#
#141120
0#
#141240
1#
#141360
0#
#141480
1#
#141600
0#
#141720
1#
#141840
0#
#141960
1#
#142080
0#
#142200
1#
#142320
0#
#142440
1#
#142560
0#
#142680
1#
#142800
0#
#142900
1#
#143020
0#
#143140
1#
#143260
0#
#143380
1#
#143500
0#
#143620
1#
#143740
0#
#143860
1#
#143980
0#
#144100
1#
#144220
0#
#144340
1#
#144460
0#
#144580
1#
#144700
0#
#144820
1#
#144940
0#
#145060
1#
#145180
0#
#145300
1#
#145420
0#
#145540
1#
#145660
0#
#145780
1#
#145900
0#
#146000
1#
#146120
0#
#213560
1!
#215020
1#
#215160
0#
#217060
0!
1#
#217180
0#
#217300
1#
#217420
0#
#217540
1#
#217660
0#
#217780
1#
#217900
0#
#218020
1#
#218140
0#
#218260
1#
#218380
0#
#218500
1#
#218620
0#
#218720
1#
#218840
0#
#218960
1#
#219080
0#
#219200
1#
#219320
0#
#219440
1#
#219560
0#
#219680
1#
#219800
0#
#219920
1#
#220040
0#
#220160
1#
#220280
0#
#220400
1#
#220520
0#
#220640
1#
#220760
0#
#220880
1#
#221000
0#
#221120
1#
#221240
0#
#221360
1#
#221480
0#
#221600
1#
#221720
0#
#221820
1#
#221940
0#
#222060
1#
#222180
0#
#222300
1#
#222420
0#
#222540
1#
#222660
0#
#222780
1#
#222900
0#
#223020
1#
#223140
0#
#223260
1#
#223280
0"
#223380
0#
#223500
1"
1#
#223620
0#
#223740
1#
#223860
0#
#223980
0"
1#
#224100
0#
#224220
1"
1#
#224340
0#
#224460
0"
1#
#224580
0#
#224680
1#
#224700
1"
#224800
0#
#224920
1#
#225040
0#
#225160
1#
#225280
0#
#225400
1#
#225520
0#
#225640
1#
#225760
0#
#225880
1#
#225900
0"
#226000
0#
#226120
1#
#226240
0#
#226360
1"
1#
#226380
0$
#226480
0#
#226600
1#
1$
#226720
0#
#226840
0"
1#
#226960
0#
#227080
1#
#227200
0#
#227320
1#
#227440
0#
#227560
1"
1#
0$
#227680
0#
#227780
1#
#227900
0#
#228020
1#
#228140
0#
#228260
1#
#228380
0#
#228500
1#
1$
#228520
0"
#228620
0#
#228740
1"
1#
#228760
0$
#228860
0#
#228980
1#
#229100
0#
#229220
1#
1$
#229240
0"
#229340
0#
#229460
1#
#229580
0#
#229700
1"
1#
#229820
0#
#229940
1#
#230060
0#
#230180
1#
#230300
0#
#230420
1#
#230540
0#
#230660
1#
#230780
0#
#230880
1#
#231000
0#
#231120
1#
#231240
0#
#231360
1#
#231480
0#
#231600
1#
#231620
0"
#231720
0#
#231840
1#
#231960
0#
#232080
1"
1#
#232200
0#
#232320
1#
#232340
0$
#232440
0#
#232560
1#
1$
#232680
0#
#232800
1#
0$
#232920
0#
#233040
1#
#233160
0#
#233280
0"
1#
1$
#233400
0#
#233520
1"
1#
0$
#233640
0#
#233740
1#
#233760
1$
#233860
0#
#233980
1#
#234000
0"
0$
#234100
0#
#234220
1#
#234340
0#
#234460
1#
#234580
0#
#234700
1"
1#
#234820
0#
#234940
1#
#235060
0#
#235180
1#
#235300
0#
#235420
1#
#235540
0#
#235660
1#
#235780
0#
#235900
1#
#236020
0#
#236140
0"
1#
1$
#236260
0#
#236380
1#
#236500
0#
#236620
1#
0$
#236740
0#
#236840
1#
#236960
0#
#237080
1#
#237100
1"
#237200
0#
#237320
1#
#237440
0#
#237560
1#
#237580
0"
#237680
0#
#237800
1"
1#
1$
#237920
0#
#238040
1#
#238060
0"
#238160
0#
#238280
1#
#238400
0#
#238520
1#
#238640
0#
#238760
1#
#238880
0#
#239000
1#
#239120
0#
#239240
1"
1#
0$
#239360
0#
#239480
1#
#239600
0#
#239720
1#
#239840
0#
#239940
1#
#240060
0#
#240180
1#
#240300
0#
#240420
1#
#240540
0#
#240660
1#
1$
#240680
0"
#240780
0#
#240900
1"
1#
#241020
0#
#241140
1#
#241160
0"
#241260
0#
#241380
1#
#241500
0#
#241620
1#
#241740
0#
#241860
1#
#241980
0#
#242100
1#
#242220
0#
#242340
1#
#242460
0#
#242580
1#
#242700
0#
#242820
1#
#242940
0#
#243040
1#
#243160
0#
#243280
1#
#243400
0#
#243520
1#
#243640
0#
#243760
1#
#243880
0#
#244000
1#
#244120
0#
#244240
1#
#244360
0#
#244480
1#
#244600
0#
#244720
1#
#244840
0#
#244960
1#
#245080
0#
#245200
1"
1#
#245320
0#
#245440
1#
#245560
0#
#245680
1#
#245800
0#
#245900
1#
#246020
0#
#246140
1#
#246260
0#
#246380
1#
#246500
0#
#246620
1#
#246740
0#
#246860
1#
#246980
0#
#247100
1#
#247220
0#
#247340
1#
#247460
0#
#247580
1#
#247700
0#
#247820
1#
#247940
0#
#248060
1#
#248180
0#
#248300
1#
#248420
0#
#248540
1#
#248660
0#
#248780
1#
#248900
0#
#249000
1#
#249020
0"
#249120
0#
#249240
1#
#249260
1"
0$
#249360
0#
#249480
1#
#249500
1$
#249600
0#
#249720
1#
#249840
0#
#249960
1#
#250080
0#
#250200
1#
#250320
0#
#250440
1#
#250560
0#
#250680
1#
#250800
0#
#250920
1#
#251040
0#
#251160
1#
#251280
0#
#251400
1#
#251520
0#
#251640
1#
#251760
0#
#251880
1#
#252000
0#
#252100
1#
#252220
0#
#252340
1#
#252460
0#
#252580
1#
#252700
0#
#252820
1#
#252940
0#
#253060
1#
#253180
0#
#253300
1#
#253420
0#
#253540
1#
#253660
0#
#253780
1#
#253900
0#
#254020
1#
#254140
0#
#254260
1#
#254380
0#
#254500
1#
#254620
0#
#254740
1#
#254840
0#
#322280
1!
#323760
1#
#323880
0#
#325780
0!
1#
#325900
0#
#326020
1#
#326140
0#
#326260
1#
#326380
0#
#326500
1#
#326620
0#
#326740
1#
#326860
0#
#326980
1#
#327100
0#
#327220
1#
#327340
0#
#327460
1#
#327580
0#
#327680
1#
#327800
0#
#327920
1#
#328040
0#
#328160
1#
#328280
0#
#328400
1#
#328520
0#
#328640
1#
#328760
0#
#328880
1#
#329000
0#
#329120
1#
#329240
0#
#329360
1#
#329480
0#
#329600
1#
#329720
0#
#329840
1#
#329960
0#
#330080
1#
#330200
0#
#330320
1#
#330440
0#
#330560
1#
#330680
0#
#330780
1#
#330900
0#
#331020
1#
#331140
0#
#331260
1#
#331380
0#
#331500
1#
#331620
0#
#331740
1#
#331860
0#
#331980
1#
#332000
0"
#332100
0#
#332220
1"
1#
#332340
0#
#332460
1#
#332580
0#
#332700
0"
1#
#332820
0#
#332940
1"
1#
#333060
0#
#333180
0"
1#
#333300
0#
#333420
1"
1#
#333540
0#
#333660
1#
#333780
0#
#333880
1#
#334000
0#
#334120
1#
#334240
0#
#334360
1#
#334480
0#
#334600
1#
#334620
0"
#334720
0#
#334840
1"
1#
#334860
0$
#334960
0#
#335080
1#
1$
#335100
0"
#335200
0#
#335320
1"
1#
#335440
0#
#335560
0"
1#
#335680
0#
#335800
1#
#335920
0#
#336040
1"
1#
0$
#336160
0#
#336280
1#
#336400
0#
#336520
1#
#336640
0#
#336740
1#
#336880
0#
#336980
1#
#337100
0#
#337220
1#
#337340
0#
#337460
1#
#337580
0#
#337700
1#
#337720
0"
#337820
0#
#337940
1#
#338060
0#
#338180
1#
1$
#338300
0#
#338420
1"
1#
#338540
0#
#338660
1#
#338780
0#
#338900
1#
#339020
0#
#339140
1#
#339260
0#
#339380
1#
#339500
0#
#339620
1#
#339740
0#
#339840
1#
#339960
0#
#340080
1#
#340100
0"
#340200
0#
#340320
1#
#340440
0#
#340560
1#
#340580
1"
#340680
0#
#340800
1#
#340820
0"
#340920
0#
#341040
1#
#341160
0#
#341280
1"
1#
#341300
0$
#341400
0#
#341520
1#
1$
#341640
0#
#341760
1#
#341880
0#
#342000
1#
#342120
0#
#342240
1#
#342360
0#
#342480
1#
#342600
0#
#342720
0"
1#
0$
#342840
0#
#342940
1#
#343060
0#
#343180
1#
#343300
0#
#343420
1#
#343440
1"
#343540
0#
#343660
1#
#343780
0#
#343900
1#
#344020
0#
#344140
1#
#344260
0#
#344380
1#
1$
#344500
0#
#344620
0"
1#
#344740
0#
#344860
1#
#344980
0#
#345100
1#
0$
#345220
0#
#345340
1#
#345460
0#
#345580
1#
#345700
0#
#345820
1"
1#
#345940
0#
#346040
1#
#346160
0#
#346280
1#
#346400
0#
#346520
1#
#346540
1$
#346640
0#
#346760
1#
#346780
0"
#346880
0#
#347000
1#
#347120
0#
#347240
1#
#347360
0#
#347480
1#
#347600
0#
#347720
1"
1#
0$
#347840
0#
#347960
1#
#348080
0#
#348200
1#
#348320
0#
#348440
1#
#348560
0#
#348680
1#
#348800
0#
#348900
1#
#349020
0#
#349140
1#
#349160
1$
#349260
0#
#349380
1#
#349500
0#
#349620
1#
#349640
0"
#349740
0#
#349860
1#
#349980
0#
#350100
1#
#350220
0#
#350340
1#
#350460
0#
#350580
1#
#350700
0#
#350820
1#
#350940
0#
#351060
1#
#351180
0#
#351300
1#
#351420
0#
#351540
1#
#351660
0#
#351780
1#
#351900
0#
#352000
1#
#352120
0#
#352240
1#
#352360
0#
#352480
1#
#352600
0#
#352720
1#
#352840
0#
#352960
1#
#353080
0#
#353200
1#
#353320
0#
#353440
1#
#353560
0#
#353680
1#
#353800
0#
#353920
1#
#354040
0#
#354160
1"
1#
#354280
0#
#354400
1#
#354520
0#
#354640
1#
#354760
0#
#354880
1#
#355000
0#
#355100
1#
#355220
0#
#355340
1#
#355460
0#
#355580
1#
#355700
0#
#355820
1#
#355940
0#
#356060
1#
#356180
0#
#356300
1#
#356420
0#
#356540
1#
#356660
0#
#356780
1#
#356900
0#
#357020
1#
#357140
0#
#357260
1#
#357380
0#
#357500
1#
#357620
0#
#357740
0"
1#
#357860
0#
#357980
1"
1#
0$
#358080
0#
#358200
1#
#358220
1$
#358320
0#
#358440
1#
#358560
0#
#358680
1#
#358800
0#
#358920
1#
#359040
0#
#359160
1#
#359280
0#
#359400
1#
#359520
0#
#359640
1#
#359760
0#
#359880
1#
#360000
0#
#360120
1#
#360240
0#
#360360
1#
#360480
0#
#360600
1#
#360720
0#
#360840
1#
#360960
0#
#361060
1#
#361180
0#
#361300
1#
#361420
0#
#361540
1#
#361660
0#
#361780
1#
#361900
0#
#362020
1#
#362140
0#
#362260
1#
#362380
0#
#362500
1#
#362620
0#
#362740
1#
#362860
0#
#362980
1#
#363100
0#
#363220
1#
#363340
0#
#363460
1#
#363560
0#
#431000
1!
#432480
1#
#432600
0#
#434500
0!
1#
#434620
0#
#434740
1#
#434860
0#
#434980
1#
#435100
0#
#435220
1#
#435340
0#
#435460
1#
#435580
0#
#435700
1#
#435820
0#
#435940
1#
#436060
0#
#436180
1#
#436300
0#
#436420
1#
#436540
0#
#436660
1#
#436780
0#
#436880
1#
#437000
0#
#437120
1#
#437240
0#
#437360
1#
#437480
0#
#437600
1#
#437720
0#
#437840
1#
#437960
0#
#438080
1#
#438200
0#
#438320
1#
#438440
0#
#438560
1#
#438680
0#
#438800
1#
#438920
0#
#439040
1#
#439160
0#
#439280
1#
#439400
0#
#439520
1#
#439640
0#
#439740
1#
#439860
0#
#439980
1#
#440100
0#
#440220
1#
#440340
0#
#440460
1#
#440580
0#
#440700
1#
#440820
0#
#440940
1#
#440960
0"
#441060
0#
#441180
1#
#441300
0#
#441420
1"
1#
#441540
0#
#441660
1#
#441780
0#
#441900
1#
#442020
0#
#442140
1#
#442260
0#
#442380
1#
#442500
0#
#442620
1#
#442740
0#
#442840
1#
#442960
0#
#443080
1#
#443100
0"
#443200
0#
#443320
1#
#443440
0#
#443560
1#
#443580
1"
0$
#443680
0#
#443800
1#
1$
#443920
0#
#444040
1#
#444060
0"
#444160
0#
#444280
1#
#444400
0#
#444520
1#
#444640
0#
#444760
1"
1#
0$
#444880
0#
#445000
1#
#445120
0#
#445240
1#
#445360
0#
#445480
1#
#445600
0#
#445720
1#
#445840
0#
#445940
1#
#446060
0#
#446180
1#
#446300
0#
#446420
1#
#446540
0#
#446660
1#
#446780
0#
#446900
1#
#446920
0"
#447020
0#
#447140
1#
1$
#447260
0#
#447380
1"
1#
#447500
0#
#447620
1#
#447740
0#
#447860
1#
#447980
0#
#448100
1#
#448220
0#
#448340
1#
#448460
0#
#448580
0"
1#
#448700
0#
#448820
1#
#448940
0#
#449040
1#
#449060
1"
#449160
0#
#449280
1#
#449300
0"
#449400
0#
#449520
1#
#449640
0#
#449760
1#
#449880
0#
#450000
1#
#450120
0#
#450240
1"
1#
#450360
0#
#450480
1#
#450500
0$
#450600
0#
#450720
1#
#450840
0#
#450960
1#
#451080
0#
#451200
1#
1$
#451320
0#
#451440
1#
0$
#451560
0#
#451680
0"
1#
#451800
0#
#451900
1#
#452020
0#
#452140
1#
#452160
1"
#452260
0#
#452380
1#
#452500
0#
#452620
1#
#452740
0#
#452860
1#
1$
#452980
0#
#453100
1#
#453120
0$
#453220
0#
#453340
1#
1$
#453360
0"
#453460
0#
#453580
1#
0$
#453700
0#
#453820
1#
#453940
0#
#454060
1#
#454180
0#
#454300
1#
#454420
0#
#454540
1"
1#
#454660
0#
#454780
0"
1#
#454900
0#
#455000
1#
#455020
1"
1$
#455120
0#
#455240
1#
#455260
0"
#455360
0#
#455480
1#
#455600
0#
#455720
1#
#455840
0#
#455960
1#
#456080
0#
#456200
1"
1#
#456220
0$
#456320
0#
#456440
1#
#456560
0#
#456680
1#
#456800
0#
#456920
1#
#457040
0#
#457160
1#
#457280
0#
#457400
1#
#457520
0#
#457640
1#
1$
#457760
0#
#457880
1#
#458000
0#
#458100
1#
#458120
0"
#458220
0#
#458340
1#
#458460
0#
#458580
1#
#458700
0#
#458820
1#
#458940
0#
#459060
1#
#459180
0#
#459300
1#
#459420
0#
#459540
1#
#459660
0#
#459780
1#
#459900
0#
#460020
1#
#460140
0#
#460260
1#
#460380
0#
#460500
1#
#460620
0#
#460740
1#
#460860
0#
#460980
1#
#461100
0#
#461200
1#
#461320
0#
#461440
1#
#461560
0#
#461680
1#
#461800
0#
#461920
1#
#462040
0#
#462160
1#
#462280
0#
#462400
1#
#462520
0#
#462640
1#
#462760
0#
#462880
1#
#463000
0#
#463120
1"
1#
#463240
0#
#463360
1#
#463480
0#
#463600
1#
#463720
0#
#463840
1#
#463960
0#
#464060
1#
#464180
0#
#464300
1#
#464420
0#
#464540
1#
#464660
0#
#464780
1#
#464900
0#
#465020
1#
#465140
0#
#465260
1#
#465380
0#
#465500
1#
#465620
0#
#465740
1#
#465860
0#
#465980
1#
#466100
0#
#466220
1#
#466340
0#
#466460
1#
#466580
0#
#466700
0"
1#
#466820
0#
#466940
1"
1#
0$
#467060
0#
#467160
1#
#467180
1$
#467280
0#
#467400
1#
#467520
0#
#467640
1#
#467760
0#
#467880
1#
#468000
0#
#468120
1#
#468240
0#
#468360
1#
#468480
0#
#468600
1#
#468720
0#
#468840
1#
#468960
0#
#469080
1#
#469200
0#
#469320
1#
#469440
0#
#469560
1#
#469680
0#
#469800
1#
#469920
0#
#470040
1#
#470160
0#
#470260
1#
#470380
0#
#470500
1#
#470620
0#
#470740
1#
#470860
0#
#470980
1#
#471100
0#
#471220
1#
#471340
0#
#471460
1#
#471580
0#
#471700
1#
#471820
0#
#471940
1#
#472060
0#
#472180
1#
#472300
0#
#539720
1!
#541200
1#
#541320
0#
#543240
0!
1#
#543340
0#
#543460
1#
#543580
0#
#543700
1#
#543820
0#
#543940
1#
#544060
0#
#544180
1#
#544300
0#
#544420
1#
#544540
0#
#544660
1#
#544780
0#
#544900
1#
#545020
0#
#545140
1#
#545260
0#
#545380
1#
#545500
0#
#545620
1#
#545740
0#
#545840
1#
#545960
0#
#546080
1#
#546200
0#
#546320
1#
#546440
0#
#546560
1#
#546680
0#
#546800
1#
#546920
0#
#547040
1#
#547160
0#
#547280
1#
#547400
0#
#547520
1#
#547640
0#
#547760
1#
#547880
0#
#548000
1#
#548120
0#
#548240
1#
#548360
0#
#548480
1#
#548600
0#
#548720
1#
#548840
0#
#548940
1#
#549060
0#
#549180
1#
#549300
0#
#549420
1#
#549540
0#
#549660
1#
#549780
0#
#549900
1#
#550020
0#
#550140
1#
#550260
0#
#550380
1#
#550400
0"
#550500
0#
#550620
1"
1#
#550740
0#
#550860
1#
#550980
0#
#551100
1#
#551220
0#
#551340
1#
#551460
0#
#551580
0"
1#
#551700
0#
#551820
1#
#551940
0#
#552040
1#
#552060
1"
0$
#552160
0#
#552280
1#
#552300
0"
1$
#552400
0#
#552520
1#
#552540
1"
#552640
0#
#552760
1#
#552780
0"
#552880
0#
#553000
1#
#553120
0#
#553240
1#
#553360
0#
#553480
1"
1#
#553500
0$
#553600
0#
#553720
1#
#553840
0#
#553960
1#
#554080
0#
#554200
1#
#554320
0#
#554440
1#
#554560
0#
#554680
1#
#554800
0#
#554900
1#
#555020
0#
#555140
1#
#555160
0"
1$
#555260
0#
#555380
1#
#555500
0#
#555620
1#
#555740
0#
#555860
1#
#555880
0$
#555980
0#
#556100
1"
1#
1$
#556220
0#
#556340
1#
#556460
0#
#556580
1#
#556700
0#
#556820
1#
#556940
0#
#557060
0"
1#
#557180
0#
#557300
1#
#557420
0#
#557540
1"
1#
#557660
0#
#557780
1#
#557900
0#
#558000
1#
#558020
0"
#558120
0#
#558240
1#
#558360
0#
#558480
1#
#558600
0#
#558720
1#
#558740
1"
#558840
0#
#558960
1#
#558980
0"
0$
#559080
0#
#559200
1#
#559320
0#
#559440
1#
#559560
0#
#559680
1#
#559800
0#
#559920
1#
1$
#560040
0#
#560160
1#
#560280
0#
#560400
1"
1#
0$
#560520
0#
#560640
0"
1#
#560760
0#
#560880
1"
1#
#561000
0#
#561100
1#
#561220
0#
#561340
1#
#561460
0#
#561580
1#
1$
#561600
0"
#561700
0#
#561820
1#
#561940
0#
#562060
1#
#562080
0$
#562180
0#
#562300
1#
#562420
0#
#562540
1#
#562660
0#
#562780
1#
#562900
0#
#563020
1#
#563140
0#
#563260
1"
1#
#563380
0#
#563500
1#
1$
#563620
0#
#563740
0"
1#
#563860
0#
#563980
1#
#564100
0#
#564200
1#
#564320
0#
#564440
1#
#564560
0#
#564680
1#
#564800
0#
#564920
1"
1#
#564940
0$
#565040
0#
#565160
1#
#565280
0#
#565400
1#
#565520
0#
#565640
1#
#565760
0#
#565880
1#
#566000
0#
#566120
0"
1#
1$
#566240
0#
#566360
1"
1#
#566480
0#
#566600
0"
1#
#566720
0#
#566840
1#
#566960
0#
#567060
1#
#567180
0#
#567300
1#
#567420
0#
#567540
1#
#567660
0#
#567780
1#
#567900
0#
#568020
1#
#568140
0#
#568260
1#
#568380
0#
#568500
1#
#568620
0#
#568740
1#
#568860
0#
#568980
1#
#569100
0#
#569220
1#
#569340
0#
#569460
1#
#569580
0#
#569700
1#
#569820
0#
#569940
1#
#570060
0#
#570160
1#
#570280
0#
#570400
1#
#570520
0#
#570640
1#
#570760
0#
#570880
1#
#571000
0#
#571120
1#
#571240
0#
#571360
1#
#571480
0#
#571600
1#
#571720
0#
#571840
1#
#571960
0#
#572080
1"
1#
#572200
0#
#572320
1#
#572440
0#
#572560
1#
#572680
0#
#572800
1#
#572920
0#
#573020
1#
#573160
0#
#573260
1#
#573380
0#
#573500
1#
#573620
0#
#573740
1#
#573860
0#
#573980
1#
#574100
0#
#574220
1#
#574340
0#
#574460
1#
#574580
0#
#574700
1#
#574820
0#
#574940
1#
#575060
0#
#575180
1#
#575300
0#
#575420
0"
1#
#575540
0#
#575660
1"
1#
0$
#575780
0#
#575900
1#
1$
#576020
0#
#576120
1#
#576240
0#
#576360
1#
#576480
0#
#576600
1#
#576720
0#
#576840
1#
#576960
0#
#577080
1#
#577200
0#
#577320
1#
#577440
0#
#577560
1#
#577680
0#
#577800
1#
#577920
0#
#578040
1#
#578160
0#
#578280
1#
#578400
0#
#578520
1#
#578640
0#
#578760
1#
#578880
0#
#579000
1#
#579120
0#
#579220
1#
#579340
0#
#579460
1#
#579580
0#
#579700
1#
#579820
0#
#579940
1#
#580060
0#
#580180
1#
#580300
0#
#580420
1#
#580540
0#
#580660
1#
#580780
0#
#580900
1#
#581020
0#
#648440
1!
#649920
1#
#650040
0#
#651960
0!
1#
#652060
0#
#652180
1#
#652300
0#
#652420
1#
#652540
0#
#652660
1#
#652780
0#
#652900
1#
#653020
0#
#653140
1#
#653260
0#
#653380
1#
#653500
0#
#653620
1#
#653740
0#
#653860
1#
#653980
0#
#654100
1#
